^C:\HOME\PROJECTS\SIMPLEREGEXMATCHER\SIMPLEREGEXMATCHER\MAIN.RESX|C:\HOME\PROJECTS\SIMPLEREGEXMATCHER\SIMPLEREGEXMATCHER\PROPERTIES\RESOURCES.RESX
C:\HOME\PROJECTS\SIMPLEREGEXMATCHER\SIMPLEREGEXMATCHER\OBJ\X86\RELEASE\SIMPLEREGEXMATCHER.MAIN.RESOURCES
C:\HOME\PROJECTS\SIMPLEREGEXMATCHER\SIMPLEREGEXMATCHER\OBJ\X86\RELEASE\SIMPLEREGEXMATCHER.PROPERTIES.RESOURCES.RESOURCES
